"distance","litres","endTimeZone","startTimeZone","brakingScore","speedScore","corneringScore","deviceSerialNumber","startTime","endTime","fuelCost","firmwareVersion","accelerationScore","deviceTripId","VIN","id","co2","averageSpeed","litresPerHundredKm","durationInSeconds","driverId","createdAt","updatedAt","vehicleId"
"0","0",null,null,null,null,null,null,null,null,"0",null,null,null,null,"476f4661-7223-5472-6970-49640000000e","0","0","0",null,null,"2015-08-21T01:58:17.491Z","2015-08-21T01:58:17.492Z","476f4661-7256-6568-6963-6c6500000023"
"0.18847","0.10817",null,null,null,null,null,null,"2015-08-18T00:00:22.000Z","2015-08-18T00:03:28.000Z","0.140621",null,null,null,null,"476f4661-7223-5472-6970-49640000000f","0.24","3.647806451612904","57.39374966838223",null,null,"2015-08-21T02:01:08.706Z","2015-08-21T02:03:37.327Z","476f4661-7256-6568-6963-6c6500000023"
"0.03562000000000001","0.01769",null,null,null,null,null,null,"2015-08-21T02:04:14.000Z","2015-08-21T02:04:53.000Z","0.022997",null,null,null,null,"476f4661-7223-5472-6970-496400000010","0.04","3.288","49.66311061201571",null,null,"2015-08-21T02:04:19.155Z","2015-08-21T02:04:55.588Z","476f4661-7256-6568-6963-6c6500000023"
"0.00683","0.00841",null,null,null,null,null,null,"2015-08-25T22:57:13.000Z","2015-08-25T22:57:29.000Z","0.010933",null,null,null,null,"476f4661-7223-5472-6970-496400000021","0.01","1.53675","123.1332357247438",null,null,"2015-09-09T23:35:29.236Z","2015-09-09T23:35:29.236Z","476f4661-7256-6568-6963-6c6500000023"
"26.11092","2.89646",null,null,null,null,null,null,"2015-08-25T22:07:14.000Z","2015-08-25T22:57:09.000Z","3.765398",null,null,null,null,"476f4661-7223-5472-6970-496400000020","6.66","31.38541302170284","11.09290672255133",null,null,"2015-09-09T23:35:29.888Z","2015-09-09T23:35:29.896Z","476f4661-7256-6568-6963-6c6500000023"
"26.4464","3.06937",null,null,null,null,null,null,"2015-08-26T07:17:09.000Z","2015-08-26T07:57:43.000Z","3.990181",null,null,null,null,"476f4661-7223-5472-6970-496400000022","7.05","39.11546425636812","11.60600308548612",null,null,"2015-09-09T23:35:32.527Z","2015-09-09T23:35:32.527Z","476f4661-7256-6568-6963-6c6500000023"
"1.38002","0.3560700000000001",null,null,null,null,null,null,"2015-08-26T09:21:59.000Z","2015-08-26T09:26:04.000Z","0.4628910000000001",null,null,null,null,"476f4661-7223-5472-6970-496400000023","0.81","20.27784489795918","25.80179997391343",null,null,"2015-09-09T23:35:33.517Z","2015-09-09T23:35:33.517Z","476f4661-7256-6568-6963-6c6500000023"
"1.71612","0.24738",null,null,null,null,null,null,"2015-08-26T09:27:06.000Z","2015-08-26T09:29:28.000Z","0.321594",null,null,null,null,"476f4661-7223-5472-6970-496400000024","0.56","43.50726760563381","14.41507586882036",null,null,"2015-09-09T23:35:36.427Z","2015-09-09T23:35:36.428Z","476f4661-7256-6568-6963-6c6500000023"
"3.24008","0.5384",null,null,null,null,null,null,"2015-08-26T09:32:38.000Z","2015-08-26T09:39:39.000Z","0.69992",null,null,null,null,"476f4661-7223-5472-6970-496400000025","1.23","27.70614726840855","16.61687365744055",null,null,"2015-09-09T23:35:37.437Z","2015-09-09T23:35:37.437Z","476f4661-7256-6568-6963-6c6500000023"
"25.8665","3.08202",null,null,null,null,null,null,"2015-08-26T22:09:02.000Z","2015-08-26T22:58:14.000Z","4.006626000000001",null,null,null,null,"476f4661-7223-5472-6970-496400000026","7.08","31.54451219512196","11.91510254576383",null,null,"2015-09-09T23:35:40.301Z","2015-09-09T23:35:40.301Z","476f4661-7256-6568-6963-6c6500000023"
"26.45393","3.05096",null,null,null,null,null,null,"2015-08-27T07:05:54.000Z","2015-08-27T07:44:31.000Z","3.966248000000001",null,null,null,null,"476f4661-7223-5472-6970-496400000027","7.01","41.10235131635736","11.53310680114448",null,null,"2015-09-09T23:35:41.291Z","2015-09-09T23:35:41.291Z","476f4661-7256-6568-6963-6c6500000023"
"26.11479","2.73194",null,null,null,null,null,null,"2015-08-27T22:06:24.000Z","2015-08-27T22:42:48.000Z","3.551522",null,null,null,null,"476f4661-7223-5472-6970-496400000028","6.28","43.04635714285715","10.4612750092955",null,null,"2015-09-09T23:35:44.064Z","2015-09-09T23:35:44.064Z","476f4661-7256-6568-6963-6c6500000023"
"7.665240000000001","1.37926",null,null,null,null,null,null,"2015-08-28T07:06:28.000Z","2015-08-28T08:04:54.000Z","1.793038",null,null,null,null,"476f4661-7223-5472-6970-496400000029","3.17","7.870754135767257","17.99369621825279",null,null,"2015-09-09T23:35:45.098Z","2015-09-09T23:35:47.900Z","476f4661-7256-6568-6963-6c6500000023"
"6.14329","0.8029700000000001",null,null,null,null,null,null,"2015-08-29T03:14:52.000Z","2015-08-29T03:29:50.000Z","1.043861",null,null,null,null,"476f4661-7223-5472-6970-49640000002b","1.84","24.62788864142539","13.07068362392138",null,null,"2015-09-09T23:35:49.153Z","2015-09-09T23:35:49.153Z","476f4661-7256-6568-6963-6c6500000023"
"3.36085","0.45938",null,null,null,null,null,null,"2015-08-29T03:56:56.000Z","2015-08-29T04:05:26.000Z","0.597194",null,null,null,null,"476f4661-7223-5472-6970-49640000002c","1.05","23.72364705882353","13.66856598777095",null,null,"2015-09-09T23:35:51.717Z","2015-09-09T23:35:51.717Z","476f4661-7256-6568-6963-6c6500000023"
"0","0",null,null,null,null,null,null,"2015-08-30T22:14:21.000Z","2015-08-30T22:14:25.000Z","0",null,null,null,null,"476f4661-7223-5472-6970-49640000002d","0","0","999",null,null,"2015-09-09T23:35:52.740Z","2015-09-09T23:35:52.740Z","476f4661-7256-6568-6963-6c6500000023"
"26.10288","2.29837",null,null,null,null,null,null,"2015-08-18T01:12:19.000Z","2015-08-18T01:45:04.000Z","2.987881",null,null,null,null,"476f4661-7223-5472-6970-49640000002e","5.28","47.82207022900764","8.80504373463771",null,null,"2015-09-09T23:35:55.374Z","2015-09-09T23:35:55.374Z","476f4661-7256-6568-6963-6c6500000023"
"0.00589","0.01025",null,null,null,null,null,null,"2015-08-18T01:45:07.000Z","2015-08-18T01:45:31.000Z","0.013325",null,null,null,null,"476f4661-7223-5472-6970-49640000002f","0.02","0.8835","174.0237691001698",null,null,"2015-09-09T23:35:56.394Z","2015-09-09T23:35:56.394Z","476f4661-7256-6568-6963-6c6500000023"
"0","0.09723000000000001",null,null,null,null,null,null,"2015-08-18T00:06:10.000Z","2015-08-18T00:07:56.000Z","0.126399",null,null,null,null,"476f4661-7223-5472-6970-496400000031","0.22","0","999",null,null,"2015-09-09T23:36:00.705Z","2015-09-09T23:36:00.706Z","476f4661-7256-6568-6963-6c6500000023"
"0","0.0001",null,null,null,null,null,null,"2015-08-18T00:59:48.000Z","2015-08-18T00:59:53.000Z","0.00013",null,null,null,null,"476f4661-7223-5472-6970-496400000033","0","0","999",null,null,"2015-09-09T23:36:04.440Z","2015-09-09T23:36:04.465Z","476f4661-7256-6568-6963-6c6500000023"
"0.3613","0.09109",null,null,null,null,null,null,"2015-08-18T01:10:52.000Z","2015-08-18T01:13:34.000Z","0.118417",null,null,null,null,"476f4661-7223-5472-6970-496400000034","0.2","8.02888888888889","25.21173539994464",null,null,"2015-09-09T23:36:06.897Z","2015-09-09T23:36:06.897Z","476f4661-7256-6568-6963-6c6500000023"
"0.03192","0.15444",null,null,null,null,null,null,"2015-08-19T06:11:13.000Z","2015-08-19T06:14:31.000Z","0.200772",null,null,null,null,"476f4661-7223-5472-6970-496400000035","0.35","0.5803636363636364","483.8345864661654",null,null,"2015-09-09T23:36:07.956Z","2015-09-09T23:36:07.956Z","476f4661-7256-6568-6963-6c6500000023"
"0","0.02184",null,null,null,null,null,null,"2015-08-19T06:15:27.000Z","2015-08-19T06:16:04.000Z","0.028392",null,null,null,null,"476f4661-7223-5472-6970-496400000036","0.05","0","999",null,null,"2015-09-09T23:36:10.687Z","2015-09-09T23:36:10.687Z","476f4661-7256-6568-6963-6c6500000023"
"0.03636","0.07723000000000001",null,null,null,null,null,null,"2015-08-18T00:00:09.000Z","2015-08-18T00:01:25.000Z","0.100399",null,null,null,null,"476f4661-7223-5472-6970-496400000037","0.17","1.722315789473684","212.4037403740374",null,null,"2015-09-09T23:36:11.795Z","2015-09-09T23:36:11.795Z","476f4661-7256-6568-6963-6c6500000023"
"0","1.53043",null,null,null,null,null,null,"2015-08-18T00:00:13.000Z","2015-08-18T01:10:14.000Z","1.989559",null,null,null,null,"476f4661-7223-5472-6970-496400000038","3.51","0","999",null,null,"2015-09-09T23:36:14.575Z","2015-09-09T23:36:14.576Z","476f4661-7256-6568-6963-6c6500000023"
"0","0.0004900000000000001",null,null,null,null,null,null,"2015-08-18T01:26:40.000Z","2015-08-18T01:26:45.000Z","0.0006370000000000002",null,null,null,null,"476f4661-7223-5472-6970-496400000039","0","0","999",null,null,"2015-09-09T23:36:15.698Z","2015-09-09T23:36:15.698Z","476f4661-7256-6568-6963-6c6500000023"
"0","0.04541000000000001",null,null,null,null,null,null,"2015-08-18T01:26:48.000Z","2015-08-18T01:28:51.000Z","0.05903300000000001",null,null,null,null,"476f4661-7223-5472-6970-49640000003a","0.1","0","999",null,null,"2015-09-09T23:36:18.573Z","2015-09-09T23:36:18.581Z","476f4661-7256-6568-6963-6c6500000023"
"0.3842100000000001","0.13479",null,null,null,null,null,null,"2015-08-18T01:40:14.000Z","2015-08-18T01:45:45.000Z","0.175227",null,null,null,null,"476f4661-7223-5472-6970-49640000003b","0.3","4.178719033232629","35.08237682517374",null,null,"2015-09-09T23:36:19.640Z","2015-09-09T23:36:19.641Z","476f4661-7256-6568-6963-6c6500000023"
"0.00508","0.0124",null,null,null,null,null,null,"2015-08-18T01:46:59.000Z","2015-08-18T01:47:26.000Z","0.01612",null,null,null,null,"476f4661-7223-5472-6970-49640000003c","0.02","0.6773333333333335","244.0944881889764",null,null,"2015-09-09T23:36:22.367Z","2015-09-09T23:36:22.367Z","476f4661-7256-6568-6963-6c6500000023"
"0.19177","0.06832",null,null,null,null,null,null,"2015-08-18T01:50:25.000Z","2015-08-18T01:53:16.000Z","0.088816",null,null,null,null,"476f4661-7223-5472-6970-49640000003d","0.15","4.037263157894738","35.62601032486833",null,null,"2015-09-09T23:36:23.497Z","2015-09-09T23:36:23.501Z","476f4661-7256-6568-6963-6c6500000023"
"0","0.006010000000000001",null,null,null,null,null,null,"2015-08-18T04:05:31.000Z","2015-08-18T04:05:39.000Z","0.007813",null,null,null,null,"476f4661-7223-5472-6970-49640000003e","0.01","0","999",null,null,"2015-09-09T23:36:26.215Z","2015-09-09T23:36:26.216Z","476f4661-7256-6568-6963-6c6500000023"
"6.87532","0.7520800000000001",null,null,null,null,null,null,"2015-08-18T04:07:02.000Z","2015-08-18T04:18:44.000Z","0.9777040000000001",null,null,null,null,"476f4661-7223-5472-6970-49640000003f","1.72","35.25805128205128","10.93883630143761",null,null,"2015-09-09T23:36:27.386Z","2015-09-09T23:36:27.387Z","476f4661-7256-6568-6963-6c6500000023"
"26.45623","3.12931",null,null,null,null,null,null,"2015-08-18T05:20:26.000Z","2015-08-18T06:11:50.000Z","4.068103000000001",null,null,null,null,"476f4661-7223-5472-6970-496400000040","7.19","30.88275875486381","11.82825368542684",null,null,"2015-09-09T23:36:30.386Z","2015-09-09T23:36:30.386Z","476f4661-7256-6568-6963-6c6500000023"
"26.13471","2.84758",null,null,null,null,null,null,"2015-08-18T20:34:51.000Z","2015-08-18T21:17:44.000Z","3.701854",null,null,null,null,"476f4661-7223-5472-6970-496400000041","6.54","36.56624795958026","10.89577806679317",null,null,"2015-09-09T23:36:31.384Z","2015-09-09T23:36:31.384Z","476f4661-7256-6568-6963-6c6500000023"
"11.75493","1.43989",null,null,null,null,null,null,"2015-08-18T22:59:35.000Z","2015-08-18T23:20:02.000Z","1.871857",null,null,null,null,"476f4661-7223-5472-6970-496400000042","3.31","34.48879217603913","12.24924350889371",null,null,"2015-09-09T23:36:34.176Z","2015-09-09T23:36:34.177Z","476f4661-7256-6568-6963-6c6500000023"
"11.67041","1.24635",null,null,null,null,null,null,"2015-08-18T23:51:53.000Z","2015-08-19T00:11:32.000Z","1.620255",null,null,null,null,"476f4661-7223-5472-6970-496400000043","2.86","35.63483969465649","10.67957338259753",null,null,"2015-09-09T23:36:35.195Z","2015-09-09T23:36:35.195Z","476f4661-7256-6568-6963-6c6500000023"
"25.32004","2.93956",null,null,null,null,null,null,"2015-08-19T05:31:28.000Z","2015-08-19T06:11:26.000Z","3.821428",null,null,null,null,"476f4661-7223-5472-6970-496400000044","6.76","38.0117364470392","11.60961831023964",null,null,"2015-09-09T23:36:38.052Z","2015-09-09T23:36:38.052Z","476f4661-7256-6568-6963-6c6500000023"
"1.4939","0.239",null,null,null,null,null,null,"2015-08-19T06:12:37.000Z","2015-08-19T06:16:45.000Z","0.3107",null,null,null,null,"476f4661-7223-5472-6970-496400000045","0.54","21.68564516129032","15.99839346676484",null,null,"2015-09-09T23:36:39.141Z","2015-09-09T23:36:39.141Z","476f4661-7256-6568-6963-6c6500000023"
"25.87009","3.09553",null,null,null,null,null,null,"2015-08-21T20:20:12.000Z","2015-08-21T21:08:32.000Z","4.024189000000001",null,null,null,null,"476f4661-7223-5472-6970-496400000046","7.11","32.11459448275862","11.96567155351991",null,null,"2015-09-09T23:36:41.953Z","2015-09-09T23:36:41.953Z","476f4661-7256-6568-6963-6c6500000023"
"26.44534","2.88199",null,null,null,null,null,null,"2015-08-22T05:17:38.000Z","2015-08-22T05:50:03.000Z","3.746587",null,null,null,null,"476f4661-7223-5472-6970-496400000047","6.62","48.94767300771209","10.89791244884732",null,null,"2015-09-09T23:36:43.076Z","2015-09-09T23:36:43.076Z","476f4661-7256-6568-6963-6c6500000023"
"26.12809","3.07577",null,null,null,null,null,null,"2015-08-22T20:20:21.000Z","2015-08-22T21:08:35.000Z","3.998501000000001",null,null,null,null,"476f4661-7223-5472-6970-496400000048","7.07","32.50211610228059","11.77188994679672",null,null,"2015-09-09T23:36:46.161Z","2015-09-09T23:36:46.161Z","476f4661-7256-6568-6963-6c6500000023"
"26.45249","2.93214",null,null,null,null,null,null,"2015-08-23T05:21:06.000Z","2015-08-23T05:59:01.000Z","3.811782",null,null,null,null,"476f4661-7223-5472-6970-496400000049","6.74","41.85888527472527","11.08455196467327",null,null,"2015-09-09T23:36:47.209Z","2015-09-09T23:36:47.209Z","476f4661-7256-6568-6963-6c6500000023"
"0","0.00805",null,null,null,null,null,null,"2015-08-23T20:19:39.000Z","2015-08-23T20:19:47.000Z","0.010465",null,null,null,null,"476f4661-7223-5472-6970-49640000004a","0.01","0","999",null,null,"2015-09-09T23:36:49.972Z","2015-09-09T23:36:49.972Z","476f4661-7256-6568-6963-6c6500000023"
"25.87679","3.69682",null,null,null,null,null,null,"2015-08-23T20:20:10.000Z","2015-08-23T21:32:19.000Z","4.805866000000001",null,null,null,null,"476f4661-7223-5472-6970-49640000004b","8.5","21.51916008316009","14.2862387490875",null,null,"2015-09-09T23:36:51.090Z","2015-09-09T23:36:51.091Z","476f4661-7256-6568-6963-6c6500000023"
"26.45538","3.40584",null,null,null,null,null,null,"2015-08-24T05:25:13.000Z","2015-08-24T06:21:41.000Z","4.427592000000001",null,null,null,null,"476f4661-7223-5472-6970-49640000004c","7.83","28.11079338842976","12.87390315315826",null,null,"2015-09-09T23:36:53.985Z","2015-09-09T23:36:53.985Z","476f4661-7256-6568-6963-6c6500000023"
"26.1196","2.64105",null,null,null,null,null,null,"2015-08-24T20:24:54.000Z","2015-08-24T21:01:21.000Z","3.433365000000001",null,null,null,null,"476f4661-7223-5472-6970-49640000004d","6.07","42.99522633744856","10.11137230279177",null,null,"2015-09-09T23:36:55.011Z","2015-09-09T23:36:55.012Z","476f4661-7256-6568-6963-6c6500000023"
"4.07781","1.0847",null,null,null,null,null,null,"2015-09-08T07:06:15.000Z","2015-09-08T07:37:25.000Z","1.41011",null,null,null,null,"476f4661-7223-5472-6970-49640000004e","2.49","7.850329411764706","26.60006228833614",null,null,"2015-09-10T00:06:35.005Z","2015-09-10T00:06:35.006Z","476f4661-7256-6568-6963-6c6500000023"
"0","0.00498",null,null,null,null,null,null,"2015-09-09T23:35:27.000Z","2015-09-09T23:35:42.000Z","0.006474000000000001",null,null,null,null,"476f4661-7223-5472-6970-49640000004f","0.01","0","999",null,null,"2015-09-10T00:08:46.902Z","2015-09-10T00:08:59.605Z","476f4661-7256-6568-6963-6c6500000023"
"0","0.0179",null,null,null,null,null,null,"2015-09-09T23:36:29.000Z","2015-09-09T23:37:14.000Z","0.02327000000000001",null,null,null,null,"476f4661-7223-5472-6970-496400000050","0.04","0","999",null,null,"2015-09-10T00:09:48.493Z","2015-09-10T00:10:32.041Z","476f4661-7256-6568-6963-6c6500000023"
"26.44431","3.33061",null,null,null,null,null,null,"2015-08-19T07:53:08.000Z","2015-08-19T08:47:56.000Z","4.329793",null,null,null,null,"476f4661-7223-5472-6970-496400000063","7.65","28.95362408759124","12.59480772990485",null,null,"2015-09-15T07:32:39.878Z","2015-09-15T07:56:34.571Z","476f4661-7256-6568-6963-6c6500000023"
"6.061750000000001","0.8714000000000001",null,null,null,null,null,null,"2015-09-10T09:33:22.000Z","2015-09-10T09:44:46.000Z","1.13282",null,null,null,null,"476f4661-7223-5472-6970-496400000052","2","31.90394736842106","14.37538664577061",null,null,"2015-09-15T07:32:42.352Z","2015-09-15T07:32:42.352Z","476f4661-7256-6568-6963-6c6500000023"
"0.5291800000000001","0.09709000000000001",null,null,null,null,null,null,"2015-09-10T09:51:00.000Z","2015-09-10T09:53:03.000Z","0.126217",null,null,null,null,"476f4661-7223-5472-6970-496400000053","0.22","15.48819512195122","18.34725424241279",null,null,"2015-09-15T07:32:43.301Z","2015-09-15T07:32:43.302Z","476f4661-7256-6568-6963-6c6500000023"
"6.120830000000001","0.8817400000000001",null,null,null,null,null,null,"2015-09-10T11:59:32.000Z","2015-09-10T12:13:56.000Z","1.146262",null,null,null,null,"476f4661-7223-5472-6970-496400000054","2.02","25.50345833333334","14.4055626442819",null,null,"2015-09-15T07:32:45.975Z","2015-09-15T07:32:45.975Z","476f4661-7256-6568-6963-6c6500000023"
"11.73804","1.48325",null,null,null,null,null,null,"2015-09-10T22:07:23.000Z","2015-09-10T22:43:38.000Z","1.928225",null,null,null,null,"476f4661-7223-5472-6970-496400000055","3.41","19.42848","12.6362663613346",null,null,"2015-09-15T07:32:47.072Z","2015-09-15T07:32:49.823Z","476f4661-7256-6568-6963-6c6500000023"
"11.68843","1.04144",null,null,null,null,null,null,"2015-09-11T01:41:57.000Z","2015-09-11T02:00:41.000Z","1.353872",null,null,null,null,"476f4661-7223-5472-6970-496400000057","2.39","37.43625266903914","8.910007588700966",null,null,"2015-09-15T07:32:51.209Z","2015-09-15T07:32:51.210Z","476f4661-7256-6568-6963-6c6500000023"
"27.72468","4.56474",null,null,null,null,null,null,"2015-09-11T06:54:58.000Z","2015-09-11T08:09:55.000Z","5.934162000000001",null,null,null,null,"476f4661-7223-5472-6970-496400000058","10.49","22.19454036024016","16.46453629040984",null,null,"2015-09-15T07:32:53.792Z","2015-09-15T07:32:53.792Z","476f4661-7256-6568-6963-6c6500000023"
"1.49708","0.21412",null,null,null,null,null,null,"2015-09-11T08:11:23.000Z","2015-09-11T08:15:23.000Z","0.278356",null,null,null,null,"476f4661-7223-5472-6970-496400000059","0.49","22.4562","14.30250888396077",null,null,"2015-09-15T07:32:54.933Z","2015-09-15T07:32:54.933Z","476f4661-7256-6568-6963-6c6500000023"
"2.93158","0.83716",null,null,null,null,null,null,"2015-09-12T01:48:57.000Z","2015-09-12T02:00:31.000Z","1.088308",null,null,null,null,"476f4661-7223-5472-6970-49640000005a","1.92","15.20704322766571","28.55661452186193",null,null,"2015-09-15T07:32:57.744Z","2015-09-15T07:32:57.744Z","476f4661-7256-6568-6963-6c6500000023"
"2.87366","0.50219",null,null,null,null,null,null,"2015-09-12T04:22:24.000Z","2015-09-12T04:30:35.000Z","0.6528470000000001",null,null,null,null,"476f4661-7223-5472-6970-49640000005b","1.15","21.06960488798371","17.47562342100318",null,null,"2015-09-15T07:32:58.763Z","2015-09-15T07:32:58.763Z","476f4661-7256-6568-6963-6c6500000023"
"0","0.14142",null,null,null,null,null,null,"2015-08-18T00:04:13.000Z","2015-08-18T00:07:42.000Z","0.183846",null,null,null,null,"476f4661-7223-5472-6970-49640000005c","0.32","0","999",null,null,"2015-09-15T07:33:01.607Z","2015-09-15T07:33:01.607Z","476f4661-7256-6568-6963-6c6500000023"
"0","0.0673",null,null,null,null,null,null,"2015-08-18T00:07:56.000Z","2015-08-18T00:10:14.000Z","0.08749",null,null,null,null,"476f4661-7223-5472-6970-49640000005d","0.15","0","999",null,null,"2015-09-15T07:33:02.696Z","2015-09-15T07:33:02.697Z","476f4661-7256-6568-6963-6c6500000023"
"26.165","2.24316",null,null,null,null,null,null,"2015-08-18T00:15:36.000Z","2015-08-18T00:42:15.000Z","2.916108",null,null,null,null,"476f4661-7223-5472-6970-49640000005e","5.15","58.90806754221389","8.573132046627173",null,null,"2015-09-15T07:33:05.529Z","2015-09-15T07:33:05.529Z","476f4661-7256-6568-6963-6c6500000023"
"11.74251","1.45241",null,null,null,null,null,null,"2015-08-18T04:50:44.000Z","2015-08-18T05:12:33.000Z","1.888133",null,null,null,null,"476f4661-7223-5472-6970-49640000005f","3.34","32.29414514896868","12.36882063545188",null,null,"2015-09-15T07:33:06.697Z","2015-09-15T07:33:06.697Z","476f4661-7256-6568-6963-6c6500000023"
"17.39141","2.38086",null,null,null,null,null,null,"2015-08-18T07:30:24.000Z","2015-08-18T08:02:13.000Z","3.095118",null,null,null,null,"476f4661-7223-5472-6970-496400000060","5.47","32.79679203771609","13.68986183408936",null,null,"2015-09-15T07:33:09.587Z","2015-09-15T07:33:09.588Z","476f4661-7256-6568-6963-6c6500000023"
"1.50099","0.2078",null,null,null,null,null,null,"2015-08-18T08:03:09.000Z","2015-08-18T08:07:21.000Z","0.27014",null,null,null,null,"476f4661-7223-5472-6970-496400000061","0.47","21.44271428571428","13.84419616386518",null,null,"2015-09-15T07:33:10.542Z","2015-09-15T07:33:10.542Z","476f4661-7256-6568-6963-6c6500000023"
"26.11853","2.98871",null,null,null,null,null,null,"2015-08-18T22:34:04.000Z","2015-08-18T23:20:59.000Z","3.885323000000001",null,null,null,null,"476f4661-7223-5472-6970-496400000062","6.87","33.40202770870338","11.44287216776748",null,null,"2015-09-15T07:33:13.346Z","2015-09-15T07:33:13.346Z","476f4661-7256-6568-6963-6c6500000023"
"26.45385","3.35156",null,null,null,null,null,null,"2015-09-17T07:10:31.000Z","2015-09-17T08:11:06.000Z","4.357028000000001",null,null,null,null,"476f4661-7223-5472-6970-496400000067","7.7","26.19913617606603","12.66946021089558",null,null,"2015-09-17T07:13:02.489Z","2015-09-23T07:53:41.200Z","476f4661-7256-6568-6963-6c6500000023"
"26.11709","2.85187",null,null,null,null,null,null,"2015-09-15T21:52:51.000Z","2015-09-15T22:38:19.000Z","3.707431000000001",null,null,null,null,"476f4661-7223-5472-6970-496400000064","6.55","34.46536803519061","10.91955497339099",null,null,"2015-09-17T07:13:05.276Z","2015-09-17T07:13:05.276Z","476f4661-7256-6568-6963-6c6500000023"
"26.45031","3.32709",null,null,null,null,null,null,"2015-09-16T07:05:17.000Z","2015-09-16T08:05:47.000Z","4.325217",null,null,null,null,"476f4661-7223-5472-6970-496400000065","7.65","26.23171239669422","12.57864274558597",null,null,"2015-09-17T07:13:06.370Z","2015-09-17T07:13:06.370Z","476f4661-7256-6568-6963-6c6500000023"
"25.87499","2.91911",null,null,null,null,null,null,"2015-09-16T21:56:29.000Z","2015-09-16T22:42:23.000Z","3.794843000000001",null,null,null,null,"476f4661-7223-5472-6970-496400000066","6.71","33.82351633986928","11.28158890109716",null,null,"2015-09-17T07:13:09.666Z","2015-09-17T07:13:09.667Z","476f4661-7256-6568-6963-6c6500000023"
"26.46683","3.34571",null,null,null,null,null,null,"2015-09-23T07:10:20.000Z","2015-09-23T08:02:03.000Z","4.349423000000001",null,null,null,null,"476f4661-7223-5472-6970-496400000082","7.69","30.70595810505962","12.64114365037294",null,null,"2015-09-23T07:53:38.513Z","2015-09-23T08:01:47.344Z","476f4661-7256-6568-6963-6c6500000023"
"25.8683","2.93658",null,null,null,null,null,null,"2015-09-17T22:01:43.000Z","2015-09-17T22:44:14.000Z","3.817554",null,null,null,null,"476f4661-7223-5472-6970-496400000068","6.75","36.50563700509604","11.35204091494223",null,null,"2015-09-23T07:53:42.514Z","2015-09-23T07:53:42.514Z","476f4661-7256-6568-6963-6c6500000023"
"10.99589","1.25215",null,null,null,null,null,null,"2015-09-18T01:38:27.000Z","2015-09-18T01:56:38.000Z","1.627795",null,null,null,null,"476f4661-7223-5472-6970-496400000069","2.87","36.28341338221815","11.38743657857618",null,null,"2015-09-23T07:53:45.780Z","2015-09-23T07:53:45.780Z","476f4661-7256-6568-6963-6c6500000023"
"3.34313","0.5745600000000001",null,null,null,null,null,null,"2015-09-18T04:13:13.000Z","2015-09-18T04:23:41.000Z","0.7469280000000001",null,null,null,null,"476f4661-7223-5472-6970-49640000006a","1.32","19.16443949044586","17.18628949517369",null,null,"2015-09-23T07:53:46.926Z","2015-09-23T07:53:46.926Z","476f4661-7256-6568-6963-6c6500000023"
"18.15667","1.96715",null,null,null,null,null,null,"2015-09-18T04:25:24.000Z","2015-09-18T04:54:57.000Z","2.557295",null,null,null,null,"476f4661-7223-5472-6970-49640000006b","4.52","36.86633502538071","10.83431047653562",null,null,"2015-09-23T07:53:50.203Z","2015-09-23T07:53:50.203Z","476f4661-7256-6568-6963-6c6500000023"
"2.09033","0.53176",null,null,null,null,null,null,"2015-09-18T05:46:45.000Z","2015-09-18T06:01:04.000Z","0.691288",null,null,null,null,"476f4661-7223-5472-6970-49640000006c","1.22","8.760405122235158","25.43904550956069",null,null,"2015-09-23T07:53:51.653Z","2015-09-23T07:53:51.654Z","476f4661-7256-6568-6963-6c6500000023"
"8.40182","1.26237",null,null,null,null,null,null,"2015-09-18T22:29:03.000Z","2015-09-18T22:45:03.000Z","1.641081",null,null,null,null,"476f4661-7223-5472-6970-49640000006d","2.9","31.506825","15.0249588779574",null,null,"2015-09-23T07:53:54.532Z","2015-09-23T07:53:54.533Z","476f4661-7256-6568-6963-6c6500000023"
"6.07584","0.76404",null,null,null,null,null,null,"2015-09-19T00:37:36.000Z","2015-09-19T00:50:02.000Z","0.9932520000000001",null,null,null,null,"476f4661-7223-5472-6970-49640000006e","1.75","29.32040750670241","12.57505135092432",null,null,"2015-09-23T07:53:55.697Z","2015-09-23T07:53:55.697Z","476f4661-7256-6568-6963-6c6500000023"
"1.66523","0.45661",null,null,null,null,null,null,"2015-09-19T05:20:00.000Z","2015-09-19T05:25:07.000Z","0.593593",null,null,null,null,"476f4661-7223-5472-6970-49640000006f","1.05","19.52712703583062","27.42023624364202",null,null,"2015-09-23T07:53:59.027Z","2015-09-23T07:53:59.028Z","476f4661-7256-6568-6963-6c6500000023"
"3.345","0.52308",null,null,null,null,null,null,"2015-09-19T05:52:51.000Z","2015-09-19T06:01:12.000Z","0.680004",null,null,null,null,"476f4661-7223-5472-6970-496400000070","1.2","24.03592814371258","15.63766816143498",null,null,"2015-09-23T07:54:00.287Z","2015-09-23T07:54:00.287Z","476f4661-7256-6568-6963-6c6500000023"
"2.38637","0.39919",null,null,null,null,null,null,"2015-09-19T06:07:53.000Z","2015-09-19T06:13:47.000Z","0.518947",null,null,null,null,"476f4661-7223-5472-6970-496400000071","0.91","24.26816949152543","16.72791729698245",null,null,"2015-09-23T07:54:03.459Z","2015-09-23T07:54:03.459Z","476f4661-7256-6568-6963-6c6500000023"
"3.31706","0.8936000000000001",null,null,null,null,null,null,"2015-09-20T04:19:31.000Z","2015-09-20T04:32:34.000Z","1.16168",null,null,null,null,"476f4661-7223-5472-6970-496400000072","2.05","15.25085057471264","26.93951873044202",null,null,"2015-09-23T07:54:04.592Z","2015-09-23T07:54:04.592Z","476f4661-7256-6568-6963-6c6500000023"
"0.46927","0.17381",null,null,null,null,null,null,"2015-09-20T04:48:10.000Z","2015-09-20T04:51:32.000Z","0.225953",null,null,null,null,"476f4661-7223-5472-6970-496400000073","0.39","8.363227722772278","37.03837875849724",null,null,"2015-09-23T07:54:07.717Z","2015-09-23T07:54:07.718Z","476f4661-7256-6568-6963-6c6500000023"
"2.27582","0.29246",null,null,null,null,null,null,"2015-09-20T04:54:03.000Z","2015-09-20T04:59:00.000Z","0.380198",null,null,null,null,"476f4661-7223-5472-6970-496400000074","0.67","27.58569696969697","12.85075269573164",null,null,"2015-09-23T07:54:09.077Z","2015-09-23T07:54:09.079Z","476f4661-7256-6568-6963-6c6500000023"
"1.69557","0.24886",null,null,null,null,null,null,"2015-09-20T05:25:19.000Z","2015-09-20T05:29:43.000Z","0.323518",null,null,null,null,"476f4661-7223-5472-6970-496400000075","0.5700000000000001","23.12140909090909","14.67707024776329",null,null,"2015-09-23T07:54:12.368Z","2015-09-23T07:54:12.368Z","476f4661-7256-6568-6963-6c6500000023"
"2.93076","0.6391",null,null,null,null,null,null,"2015-09-20T22:33:35.000Z","2015-09-20T22:40:14.000Z","0.8308300000000001",null,null,null,null,"476f4661-7223-5472-6970-496400000076","1.46","26.44294736842105","21.80663036209038",null,null,"2015-09-23T07:54:13.497Z","2015-09-23T07:54:13.497Z","476f4661-7256-6568-6963-6c6500000023"
"0.05944000000000001","0.07912000000000001",null,null,null,null,null,null,"2015-09-20T22:43:15.000Z","2015-09-20T22:45:54.000Z","0.102856",null,null,null,null,"476f4661-7223-5472-6970-496400000077","0.18","1.345811320754717","133.1090174966353",null,null,"2015-09-23T07:54:16.558Z","2015-09-23T07:54:16.559Z","476f4661-7256-6568-6963-6c6500000023"
"0.00859","0.01097",null,null,null,null,null,null,"2015-09-20T22:46:18.000Z","2015-09-20T22:46:38.000Z","0.014261",null,null,null,null,"476f4661-7223-5472-6970-496400000078","0.02","1.5462","127.7066356228172",null,null,"2015-09-23T07:54:17.802Z","2015-09-23T07:54:17.803Z","476f4661-7256-6568-6963-6c6500000023"
"0.00114","0.02291",null,null,null,null,null,null,"2015-09-21T02:37:28.000Z","2015-09-21T02:37:43.000Z","0.029783",null,null,null,null,"476f4661-7223-5472-6970-496400000079","0.05","0.2736000000000001","2009.649122807018",null,null,"2015-09-23T07:54:20.937Z","2015-09-23T07:54:20.938Z","476f4661-7256-6568-6963-6c6500000023"
"0.04804000000000001","0.10081",null,null,null,null,null,null,"2015-09-21T07:04:15.000Z","2015-09-21T07:06:14.000Z","0.131053",null,null,null,null,"476f4661-7223-5472-6970-49640000007a","0.23","1.453310924369748","209.8459616985845",null,null,"2015-09-23T07:54:22.218Z","2015-09-23T07:54:22.218Z","476f4661-7256-6568-6963-6c6500000023"
"1.17596","0.29105",null,null,null,null,null,null,"2015-09-21T07:13:34.000Z","2015-09-21T07:17:04.000Z","0.3783650000000001",null,null,null,null,"476f4661-7223-5472-6970-49640000007b","0.66","20.15931428571429","24.7499914963094",null,null,"2015-09-23T07:54:25.308Z","2015-09-23T07:54:25.308Z","476f4661-7256-6568-6963-6c6500000023"
"1.68282","0.32303",null,null,null,null,null,null,"2015-09-21T07:17:16.000Z","2015-09-21T07:23:35.000Z","0.4199390000000001",null,null,null,null,"476f4661-7223-5472-6970-49640000007c","0.74","15.98456992084433","19.19575474501135",null,null,"2015-09-23T07:54:26.577Z","2015-09-23T07:54:26.578Z","476f4661-7256-6568-6963-6c6500000023"
"19.87295","2.18353",null,null,null,null,null,null,"2015-09-21T22:01:55.000Z","2015-09-21T22:35:11.000Z","2.838589",null,null,null,null,"476f4661-7223-5472-6970-49640000007d","5.02","35.84299599198398","10.98744776190752",null,null,"2015-09-23T07:54:29.699Z","2015-09-23T07:54:29.699Z","476f4661-7256-6568-6963-6c6500000023"
"11.7096","1.1481",null,null,null,null,null,null,"2015-09-22T01:02:01.000Z","2015-09-22T01:21:44.000Z","1.49253",null,null,null,null,"476f4661-7223-5472-6970-49640000007e","2.64","35.63360946745563","9.804775568764091",null,null,"2015-09-23T07:54:30.898Z","2015-09-23T07:54:30.898Z","476f4661-7256-6568-6963-6c6500000023"
"26.08971","2.9883",null,null,null,null,null,null,"2015-09-22T07:14:06.000Z","2015-09-22T07:54:10.000Z","3.88479",null,null,null,null,"476f4661-7223-5472-6970-49640000007f","6.87","39.06944925124792","11.4539410365236",null,null,"2015-09-23T07:54:34.048Z","2015-09-23T07:54:34.048Z","476f4661-7256-6568-6963-6c6500000023"
"2.34927","0.3567900000000001",null,null,null,null,null,null,"2015-09-22T07:58:21.000Z","2015-09-22T08:03:48.000Z","0.4638270000000001",null,null,null,null,"476f4661-7223-5472-6970-496400000080","0.8200000000000001","25.86352293577982","15.18727093948333",null,null,"2015-09-23T07:54:35.248Z","2015-09-23T07:54:35.249Z","476f4661-7256-6568-6963-6c6500000023"
"26.14535","2.72742",null,null,null,null,null,null,"2015-09-22T21:57:00.000Z","2015-09-22T22:39:43.000Z","3.545646000000001",null,null,null,null,"476f4661-7223-5472-6970-496400000081","6.27","36.72386266094421","10.43175937595022",null,null,"2015-09-23T07:54:38.509Z","2015-09-23T07:54:38.510Z","476f4661-7256-6568-6963-6c6500000023"
"0","0",null,null,null,null,null,null,null,null,"0",null,null,null,null,"476f4661-7223-5472-6970-496400000083","0","0","0",null,null,"2015-09-23T22:01:50.617Z","2015-09-23T22:01:50.618Z","476f4661-7256-6568-6963-6c6500000023"